{
    "problem_data"                     : {
        "problem_name"    : "couette",
        "model_part_name" : "MainModelPart",
        "parallel_type"   : "OpenMP",
        "domain_size"     : 3,
        "start_step"      : 0.0,
        "end_time"        : 1000.0
    },
    "output_configuration"             : {
        "result_file_configuration" : {
            "gidpost_flags"       : {
                "GiDPostMode"           : "GiD_PostBinary",
                "WriteDeformedMeshFlag" : "WriteDeformed",
                "WriteConditionsFlag"   : "WriteConditions",
                "MultiFileFlag"         : "SingleFile"
            },
            "file_label"          : "step",
            "output_control_type" : "step",
            "output_frequency"    : 1.0,
            "body_output"         : true,
            "node_output"         : false,
            "skin_output"         : false,
            "plane_output"        : [],
            "nodal_results"       : ["VELOCITY","PRESSURE","DISTANCE"],
            "gauss_point_results" : []
        },
        "point_data_configuration"  : []
    },
    "restart_options"                  : {
        "SaveRestart"      : "False",
        "RestartFrequency" : 0,
        "LoadRestart"      : "False",
        "Restart_Step"     : 0
    },
    "solver_settings"                  : {
        "solver_type"                  : "Embedded",
        "model_import_settings"        : {
            "input_type"     : "mdpa",
            "input_filename" : "EmbeddedCouetteTest/couette"
        },
        "maximum_iterations"           : 10,
        "dynamic_tau"                  : 0.001,
        "echo_level"                   : 0,
        "time_order"                   : 2,
        "compute_reactions"            : false,
        "divergence_clearance_steps"   : 0,
        "reform_dofs_at_each_step"     : false,
        "relative_velocity_tolerance"  : 1e-5,
        "absolute_velocity_tolerance"  : 1e-7,
        "relative_pressure_tolerance"  : 1e-5,
        "absolute_pressure_tolerance"  : 1e-7,
        "linear_solver_settings"       : {
            "solver_type"         : "AMGCL",
            "max_iteration"       : 500,
            "tolerance"           : 1e-8,
            "provide_coordinates" : false,
            "smoother_type"       : "ilu0",
            "krylov_type"         : "gmres",
            "coarsening_type"     : "aggregation",
            "scaling"             : true,
            "verbosity"           : 0
        },
        "volume_model_part_name"       : "Parts_Fluid",
        "skin_parts"                   : ["Inlet3D","Outlet3D","Top3D","Sides3D"],
        "no_skin_parts"                : [],
        "time_stepping"                : {
            "automatic_time_step" : false,
            "time_step"           : 100.0
        }
    },
    "initial_conditions_process_list"  : [],
    "boundary_conditions_process_list" : [{
        "python_module" : "embedded_couette_test_local_process",
        "kratos_module" : "KratosMultiphysics.FluidDynamicsApplication",
        "process_name"  : "EmbeddedCouetteTestLocalProcess",
        "Parameters"    : {
            "mesh_id"                : 0,
            "distance"               : 0.5,
            "fluid_model_part_name"  : "Parts_Fluid"
        }
    },{
        "python_module" : "assign_vector_variable_process",
        "kratos_module" : "KratosMultiphysics",
        "process_name"  : "AssignVectorVariableProcess",
        "Parameters"    : {
            "mesh_id"         : 0,
            "model_part_name" : "Outlet3D",
            "variable_name"   : "VELOCITY",
            "value"           : [null, 0.0, 0.0],
            "constrained"     : [false,true,true]
        }
    },{
        "python_module" : "assign_vector_variable_process",
        "kratos_module" : "KratosMultiphysics",
        "process_name"  : "AssignVectorVariableProcess",
        "Parameters"    : {
            "mesh_id"         : 0,
            "model_part_name" : "Sides3D",
            "variable_name"   : "VELOCITY",
            "value"           : [null, 0.0, null],
            "constrained"     : [false,true,false]
        }
    },{
        "python_module" : "assign_vector_variable_process",
        "kratos_module" : "KratosMultiphysics",
        "process_name"  : "AssignVectorVariableProcess",
        "Parameters"    : {
            "mesh_id"         : 0,
            "model_part_name" : "Top3D",
            "variable_name"   : "VELOCITY",
            "value"           : [1.0, 0.0, 0.0],
            "constrained"     : [true,true,true]
        }
    },{
        "python_module" : "apply_distance_modification_process",
        "kratos_module" : "KratosMultiphysics.FluidDynamicsApplication",
        "process_name"  : "ApplyDistanceModificationProcess",
        "Parameters"    : {
            "mesh_id"                   : 0,
            "model_part_name"           : "Parts_Fluid",
            "check_at_each_time_step"   : false
        }
    }],
    "gravity"                          : [{
        "python_module" : "assign_vector_by_direction_process",
        "kratos_module" : "KratosMultiphysics",
        "process_name"  : "AssignVectorByDirectionProcess",
        "Parameters"    : {
            "mesh_id"         : 0,
            "model_part_name" : "Parts_Fluid",
            "variable_name"   : "BODY_FORCE",
            "modulus"         : 0.0,
            "constrained"     : false,
            "direction"       : [0.0,0.0,-1.0]
        }
    }]
}
